{"api_version":"1.0","results":[{"cycles":[2020],"incumbent_challenge_full":"Challenger","candidate_inactive":false,"party":"DEM","first_file_date":"2019-04-15","party_full":"DEMOCRATIC PARTY","inactive_election_years":null,"last_f2_date":"2019-04-15","office_full":"Senate","election_years":[2020],"candidate_status":"C","district":"00","has_raised_funds":true,"incumbent_challenge":"C","office":"S","name":"BAER, DAN","principal_committees":[{"cycles":[2020],"designation":"P","party":"DEM","filing_frequency":"Q","candidate_ids":["S0CO00500"],"first_file_date":"2019-04-16","party_full":"DEMOCRATIC PARTY","organization_type":null,"committee_type_full":"Senate","designation_full":"Principal campaign committee","committee_type":"S","organization_type_full":null,"committee_id":"C00703033","treasurer_name":"GINSBURG, LESLIE","name":"DAN FOR COLORADO","last_file_date":"2019-10-15","last_f1_date":"2019-04-16","state":"CO","affiliated_committee_name":"DAN FOR COLORADO 2018"}],"load_date":"2019-07-22T21:11:27+00:00","last_file_date":"2019-04-15","election_districts":["00"],"district_number":0,"candidate_id":"S0CO00500","state":"CO","active_through":2020,"federal_funds_flag":false},{"cycles":[2020],"incumbent_challenge_full":"Challenger","candidate_inactive":false,"party":"SOC","first_file_date":"2019-08-22","party_full":"SOCIALIST PARTY U.S.A.","inactive_election_years":null,"last_f2_date":"2019-08-22","office_full":"Senate","election_years":[2020],"candidate_status":"N","district":"00","has_raised_funds":false,"incumbent_challenge":"C","office":"S","name":"BELLAMY, V?RONIQUE MARIE DR.","principal_committees":[{"cycles":[2020],"designation":"P","party":"SOC","filing_frequency":"Q","candidate_ids":["S0CO00583"],"first_file_date":"2019-08-22","party_full":"SOCIALIST PARTY U.S.A.","organization_type":null,"committee_type_full":"Senate","designation_full":"Principal campaign committee","committee_type":"S","organization_type_full":null,"committee_id":"C00716795","treasurer_name":"BELLAMY, V?RONIQUE MARIE DR.","name":"STANS OF V?RONIQUE BELLAMY FOR SENATE","last_file_date":"2019-08-22","last_f1_date":"2019-08-22","state":"CO","affiliated_committee_name":"NONE"}],"load_date":"2019-08-26T21:08:56+00:00","last_file_date":"2019-08-22","election_districts":["00"],"district_number":0,"candidate_id":"S0CO00583","state":"CO","active_through":2020,"federal_funds_flag":false},{"cycles":[2018,2020],"incumbent_challenge_full":"Challenger","candidate_inactive":false,"party":"DEM","first_file_date":"2017-04-13","party_full":"DEMOCRATIC PARTY","inactive_election_years":null,"last_f2_date":"2017-07-14","office_full":"Senate","election_years":[2020],"candidate_status":"N","district":"00","has_raised_funds":true,"incumbent_challenge":"C","office":"S","name":"BLANTON, DERRICK JAMES","principal_committees":[{"cycles":[2018],"designation":"P","party":"DEM","filing_frequency":"T","candidate_ids":["S0CO00427"],"first_file_date":"2017-04-13","party_full":"DEMOCRATIC PARTY","organization_type":null,"committee_type_full":"Senate","designation_full":"Principal campaign committee","committee_type":"S","organization_type_full":null,"committee_id":"C00637629","treasurer_name":"BRATTON, LORELI","name":"DERRICK BLANTON IN SUPPORT OF WORKING FAMILIES","last_file_date":"2018-05-04","last_f1_date":"2017-07-14","state":"CO","affiliated_committee_name":null}],"load_date":"2019-01-28T21:05:11+00:00","last_file_date":"2017-07-14","election_districts":["00"],"district_number":0,"candidate_id":"S0CO00427","state":"CO","active_through":2020,"federal_funds_flag":false},{"cycles":[2020],"incumbent_challenge_full":"Challenger","candidate_inactive":false,"party":"DEM","first_file_date":"2019-04-02","party_full":"DEMOCRATIC PARTY","inactive_election_years":null,"last_f2_date":"2019-04-02","office_full":"Senate","election_years":[2020],"candidate_status":"C","district":"00","has_raised_funds":true,"incumbent_challenge":"C","office":"S","name":"BRAY, DIANA","principal_committees":[{"cycles":[2020],"designation":"P","party":"DEM","filing_frequency":"Q","candidate_ids":["S0CO00492"],"first_file_date":"2019-04-02","party_full":"DEMOCRATIC PARTY","organization_type":null,"committee_type_full":"Senate","designation_full":"Principal campaign committee","committee_type":"S","organization_type_full":null,"committee_id":"C00700948","treasurer_name":"BRAY, DIANA","name":"DIANA BRAY FOR COLORADO","last_file_date":"2019-10-04","last_f1_date":"2019-05-13","state":"CO","affiliated_committee_name":"NONE"}],"load_date":"2019-07-15T21:09:43+00:00","last_file_date":"2019-04-02","election_districts":["00"],"district_number":0,"candidate_id":"S0CO00492","state":"CO","active_through":2020,"federal_funds_flag":false},{"cycles":[2020],"incumbent_challenge_full":"Challenger","candidate_inactive":false,"party":"DEM","first_file_date":"2019-09-16","party_full":"DEMOCRATIC PARTY","inactive_election_years":null,"last_f2_date":"2019-09-16","office_full":"Senate","election_years":[2020],"candidate_status":"N","district":"00","has_raised_funds":false,"incumbent_challenge":"C","office":"S","name":"BURGESS, DENISE","principal_committees":[{"cycles":[2020],"designation":"P","party":"DEM","filing_frequency":"T","candidate_ids":["S0CO00609"],"first_file_date":"2019-09-16","party_full":"DEMOCRATIC PARTY","organization_type":null,"committee_type_full":"Senate","designation_full":"Principal campaign committee","committee_type":"S","organization_type_full":null,"committee_id":"C00719591","treasurer_name":"PETTERSON, JAY","name":"BURGESS FOR COLORADO","last_file_date":"2019-09-26","last_f1_date":"2019-09-16","state":"CO","affiliated_committee_name":"NONE"}],"load_date":"2019-09-18T21:12:14+00:00","last_file_date":"2019-09-16","election_districts":["00"],"district_number":0,"candidate_id":"S0CO00609","state":"CO","active_through":2020,"federal_funds_flag":false},{"cycles":[2020],"incumbent_challenge_full":"Challenger","candidate_inactive":false,"party":"DEM","first_file_date":"2019-04-17","party_full":"DEMOCRATIC PARTY","inactive_election_years":null,"last_f2_date":"2019-04-17","office_full":"Senate","election_years":[2020],"candidate_status":"C","district":"00","has_raised_funds":true,"incumbent_challenge":"C","office":"S","name":"BURNES, ELLEN DR","principal_committees":[{"cycles":[2020],"designation":"P","party":"DEM","filing_frequency":"T","candidate_ids":["S0CO00526"],"first_file_date":"2019-04-17","party_full":"DEMOCRATIC PARTY","organization_type":null,"committee_type_full":"Senate","designation_full":"Principal campaign committee","committee_type":"S","organization_type_full":null,"committee_id":"C00703108","treasurer_name":"SROGE, JOSHUA","name":"BURNES FOR COLORADO, INC","last_file_date":"2019-10-29","last_f1_date":"2019-04-17","state":"CO","affiliated_committee_name":"NONE"}],"load_date":"2019-07-22T21:11:27+00:00","last_file_date":"2019-04-17","election_districts":["00"],"district_number":0,"candidate_id":"S0CO00526","state":"CO","active_through":2020,"federal_funds_flag":false},{"cycles":[2018,2020],"incumbent_challenge_full":"Challenger","candidate_inactive":false,"party":"DEM","first_file_date":"2018-11-09","party_full":"DEMOCRATIC PARTY","inactive_election_years":null,"last_f2_date":"2018-11-09","office_full":"Senate","election_years":[2020],"candidate_status":"C","district":"00","has_raised_funds":true,"incumbent_challenge":"C","office":"S","name":"GARCIA, LORENA LORENA FOR","principal_committees":[{"cycles":[2018,2020],"designation":"P","party":"DEM","filing_frequency":"Q","candidate_ids":["S0CO00435"],"first_file_date":"2018-11-05","party_full":"DEMOCRATIC PARTY","organization_type":null,"committee_type_full":"Senate","designation_full":"Principal campaign committee","committee_type":"S","organization_type_full":null,"committee_id":"C00691089","treasurer_name":"GARCIA, RICHARD","name":"LORENA FOR COLORADO","last_file_date":"2019-10-15","last_f1_date":"2018-11-09","state":"CO","affiliated_committee_name":"NONE"}],"load_date":"2019-02-15T22:03:20+00:00","last_file_date":"2018-11-09","election_districts":["00"],"district_number":0,"candidate_id":"S0CO00435","state":"CO","active_through":2020,"federal_funds_flag":false},{"cycles":[2014,2016,2018,2020],"incumbent_challenge_full":"Incumbent","candidate_inactive":false,"party":"REP","first_file_date":"2014-03-03","party_full":"REPUBLICAN PARTY","inactive_election_years":null,"last_f2_date":"2015-01-27","office_full":"Senate","election_years":[2014,2020],"candidate_status":"C","district":"00","has_raised_funds":true,"incumbent_challenge":"I","office":"S","name":"GARDNER, CORY","principal_committees":[{"cycles":[2010,2012,2014,2016,2018,2020],"designation":"P","party":"REP","filing_frequency":"Q","candidate_ids":["H0CO04122","S4CO00395"],"first_file_date":"2010-12-30","party_full":"REPUBLICAN PARTY","organization_type":null,"committee_type_full":"Senate","designation_full":"Principal campaign committee","committee_type":"S","organization_type_full":null,"committee_id":"C00492454","treasurer_name":"LISKER, LISA","name":"CORY GARDNER FOR SENATE","last_file_date":"2019-10-15","last_f1_date":"2019-10-15","state":"CO","affiliated_committee_name":"GARDNER FOR COLORADO"}],"load_date":"2019-03-27T21:06:35+00:00","last_file_date":"2015-01-27","election_districts":["00","00"],"district_number":0,"candidate_id":"S4CO00395","state":"CO","active_through":2020,"federal_funds_flag":false},{"cycles":[2020],"incumbent_challenge_full":"Challenger","candidate_inactive":false,"party":"DEM","first_file_date":"2019-08-22","party_full":"DEMOCRATIC PARTY","inactive_election_years":null,"last_f2_date":"2019-08-22","office_full":"Senate","election_years":[2020],"candidate_status":"C","district":"00","has_raised_funds":true,"incumbent_challenge":"C","office":"S","name":"HICKENLOOPER, JOHN W.","principal_committees":[{"cycles":[2020],"designation":"P","party":"DEM","filing_frequency":"Q","candidate_ids":["S0CO00575"],"first_file_date":"2019-08-22","party_full":"DEMOCRATIC PARTY","organization_type":null,"committee_type_full":"Senate","designation_full":"Principal campaign committee","committee_type":"S","organization_type_full":null,"committee_id":"C00716720","treasurer_name":"TURNAGE, MARK","name":"HICKENLOOPER FOR COLORADO","last_file_date":"2019-10-15","last_f1_date":"2019-08-22","state":"CO","affiliated_committee_name":"NONE"}],"load_date":"2019-10-24T21:13:24+00:00","last_file_date":"2019-08-22","election_districts":["00"],"district_number":0,"candidate_id":"S0CO00575","state":"CO","active_through":2020,"federal_funds_flag":false},{"cycles":[2020],"incumbent_challenge_full":"Challenger","candidate_inactive":false,"party":"DEM","first_file_date":"2019-01-31","party_full":"DEMOCRATIC PARTY","inactive_election_years":null,"last_f2_date":"2019-01-31","office_full":"Senate","election_years":[2020],"candidate_status":"C","district":"00","has_raised_funds":true,"incumbent_challenge":"C","office":"S","name":"JOHNSTON, MICHAEL C","principal_committees":[{"cycles":[2020],"designation":"P","party":"DEM","filing_frequency":"Q","candidate_ids":["S0CO00468"],"first_file_date":"2019-01-31","party_full":"DEMOCRATIC PARTY","organization_type":null,"committee_type_full":"Senate","designation_full":"Principal campaign committee","committee_type":"S","organization_type_full":null,"committee_id":"C00695411","treasurer_name":"MORSE, JOHN P CPA","name":"MIKE JOHNSTON FOR US SENATE","last_file_date":"2019-10-15","last_f1_date":"2019-01-31","state":"CO","affiliated_committee_name":"NONE"}],"load_date":"2019-05-16T21:09:24+00:00","last_file_date":"2019-01-31","election_districts":["00"],"district_number":0,"candidate_id":"S0CO00468","state":"CO","active_through":2020,"federal_funds_flag":false},{"cycles":[2020],"incumbent_challenge_full":"Challenger","candidate_inactive":false,"party":"DEM","first_file_date":"2019-02-26","party_full":"DEMOCRATIC PARTY","inactive_election_years":null,"last_f2_date":"2019-02-26","office_full":"Senate","election_years":[2020],"candidate_status":"N","district":"00","has_raised_funds":false,"incumbent_challenge":"C","office":"S","name":"KOMBO, DANIELLE","principal_committees":[{"cycles":[2020],"designation":"P","party":"DEM","filing_frequency":"T","candidate_ids":["S0CO00476"],"first_file_date":"2019-02-19","party_full":"DEMOCRATIC PARTY","organization_type":null,"committee_type_full":"Senate","designation_full":"Principal campaign committee","committee_type":"S","organization_type_full":null,"committee_id":"C00696997","treasurer_name":"ROTHE, BARRETT","name":"KOMBO FOR COLORADO","last_file_date":"2019-08-11","last_f1_date":"2019-02-26","state":"CO","affiliated_committee_name":"NONE"}],"load_date":"2019-03-01T21:11:59+00:00","last_file_date":"2019-02-26","election_districts":["00"],"district_number":0,"candidate_id":"S0CO00476","state":"CO","active_through":2020,"federal_funds_flag":false},{"cycles":[2018,2020],"incumbent_challenge_full":"Challenger","candidate_inactive":false,"party":"DEM","first_file_date":"2017-02-27","party_full":"DEMOCRATIC PARTY","inactive_election_years":null,"last_f2_date":"2017-02-27","office_full":"Senate","election_years":[2020],"candidate_status":"C","district":"00","has_raised_funds":true,"incumbent_challenge":"C","office":"S","name":"LEITZEL, DUSTIN JOHN","principal_committees":[{"cycles":[2018,2020],"designation":"P","party":"DEM","filing_frequency":"Q","candidate_ids":["S0CO00419"],"first_file_date":"2017-03-03","party_full":"DEMOCRATIC PARTY","organization_type":null,"committee_type_full":"Senate","designation_full":"Principal campaign committee","committee_type":"S","organization_type_full":null,"committee_id":"C00634345","treasurer_name":"MELISSA JORDAN","name":"LEITZEL FOR COLORADO","last_file_date":"2019-10-30","last_f1_date":"2017-03-03","state":"CO","affiliated_committee_name":"NONE"}],"load_date":"2019-01-28T21:05:11+00:00","last_file_date":"2017-02-27","election_districts":["00"],"district_number":0,"candidate_id":"S0CO00419","state":"CO","active_through":2020,"federal_funds_flag":false},{"cycles":[2020],"incumbent_challenge_full":"Challenger","candidate_inactive":false,"party":"DEM","first_file_date":"2019-05-09","party_full":"DEMOCRATIC PARTY","inactive_election_years":null,"last_f2_date":"2019-05-09","office_full":"Senate","election_years":[2020],"candidate_status":"C","district":"00","has_raised_funds":true,"incumbent_challenge":"C","office":"S","name":"MADDEN, ALICE","principal_committees":[{"cycles":[2020],"designation":"P","party":"DEM","filing_frequency":"Q","candidate_ids":["S0CO00534"],"first_file_date":"2019-05-09","party_full":"DEMOCRATIC PARTY","organization_type":null,"committee_type_full":"Senate","designation_full":"Principal campaign committee","committee_type":"S","organization_type_full":null,"committee_id":"C00706044","treasurer_name":"BUESCHER, BERNIE","name":"ALICE MADDEN FOR SENATE","last_file_date":"2019-11-10","last_f1_date":"2019-11-10","state":"CO","affiliated_committee_name":"NONE"}],"load_date":"2019-07-22T21:11:27+00:00","last_file_date":"2019-05-09","election_districts":["00"],"district_number":0,"candidate_id":"S0CO00534","state":"CO","active_through":2020,"federal_funds_flag":false},{"cycles":[2020],"incumbent_challenge_full":"Challenger","candidate_inactive":false,"party":"DEM","first_file_date":"2019-09-05","party_full":"DEMOCRATIC PARTY","inactive_election_years":null,"last_f2_date":"2019-09-05","office_full":"Senate","election_years":[2020],"candidate_status":"N","district":"00","has_raised_funds":true,"incumbent_challenge":"C","office":"S","name":"MILTON, CHRISTOPHER HAWKINS CRITTER","principal_committees":[{"cycles":[2020],"designation":"P","party":"DEM","filing_frequency":"Q","candidate_ids":["S0CO00591"],"first_file_date":"2019-09-17","party_full":"DEMOCRATIC PARTY","organization_type":null,"committee_type_full":"Senate","designation_full":"Principal campaign committee","committee_type":"S","organization_type_full":null,"committee_id":"C00719823","treasurer_name":"MILTON, CHRISTOPHER","name":"MILTON FOR COLORADO","last_file_date":"2019-10-15","last_f1_date":"2019-09-17","state":"CO","affiliated_committee_name":"NONE"}],"load_date":"2019-09-11T21:16:35+00:00","last_file_date":"2019-09-05","election_districts":["00"],"district_number":0,"candidate_id":"S0CO00591","state":"CO","active_through":2020,"federal_funds_flag":false},{"cycles":[2018,2020],"incumbent_challenge_full":"Challenger","candidate_inactive":false,"party":"DEM","first_file_date":"2018-11-28","party_full":"DEMOCRATIC PARTY","inactive_election_years":null,"last_f2_date":"2018-11-28","office_full":"Senate","election_years":[2020],"candidate_status":"N","district":"00","has_raised_funds":true,"incumbent_challenge":"C","office":"S","name":"POTTRATZ, KEITH ALLEN","principal_committees":[{"cycles":[2018,2020],"designation":"P","party":"DEM","filing_frequency":"Q","candidate_ids":["S0CO00443"],"first_file_date":"2018-11-28","party_full":"DEMOCRATIC PARTY","organization_type":null,"committee_type_full":"Senate","designation_full":"Principal campaign committee","committee_type":"S","organization_type_full":null,"committee_id":"C00692160","treasurer_name":"FOSTER, CASSIDY","name":"CITIZENS TO ELECT KEITH POTTRATZ","last_file_date":"2019-07-25","last_f1_date":"2018-11-28","state":"CO","affiliated_committee_name":"NONE"}],"load_date":"2019-01-28T21:05:11+00:00","last_file_date":"2018-11-28","election_districts":["00"],"district_number":0,"candidate_id":"S0CO00443","state":"CO","active_through":2020,"federal_funds_flag":false},{"cycles":[2020],"incumbent_challenge_full":"Challenger","candidate_inactive":false,"party":"UNK","first_file_date":"2019-09-22","party_full":"UNKNOWN","inactive_election_years":null,"last_f2_date":"2019-09-22","office_full":"Senate","election_years":[2020],"candidate_status":"N","district":"00","has_raised_funds":false,"incumbent_challenge":"C","office":"S","name":"RODRIGUEZ, JOSHUA","principal_committees":[{"cycles":[2020],"designation":"P","party":"UNK","filing_frequency":"Q","candidate_ids":["S0CO00617"],"first_file_date":"2019-09-22","party_full":"UNKNOWN","organization_type":null,"committee_type_full":"Senate","designation_full":"Principal campaign committee","committee_type":"S","organization_type_full":null,"committee_id":"C00720250","treasurer_name":"RODRIGUEZ, JOSHUA","name":"JOSHUA FOR COLORADO","last_file_date":"2019-09-22","last_f1_date":"2019-09-22","state":"CO","affiliated_committee_name":"NONE"}],"load_date":"2019-10-01T21:13:53+00:00","last_file_date":"2019-09-22","election_districts":["00"],"district_number":0,"candidate_id":"S0CO00617","state":"CO","active_through":2020,"federal_funds_flag":false},{"cycles":[2010,2012,2014,2016,2018,2020],"incumbent_challenge_full":"Challenger","candidate_inactive":false,"party":"DEM","first_file_date":"2009-09-05","party_full":"DEMOCRATIC PARTY","inactive_election_years":null,"last_f2_date":"2019-03-12","office_full":"Senate","election_years":[2010,2020],"candidate_status":"C","district":"00","has_raised_funds":true,"incumbent_challenge":"C","office":"S","name":"ROMANOFF, ANDREW","principal_committees":[{"cycles":[2010,2012,2014,2016,2018,2020],"designation":"A","party":"DEM","filing_frequency":"Q","candidate_ids":["S0CO00286"],"first_file_date":"2009-09-14","party_full":"DEMOCRATIC PARTY","organization_type":null,"committee_type_full":"Senate","designation_full":"Authorized by a candidate","committee_type":"S","organization_type_full":null,"committee_id":"C00467118","treasurer_name":"RIVERA, PATRICIA BARELA","name":"ROMANOFF FOR COLORADO 2010","last_file_date":"2019-10-16","last_f1_date":"2019-02-06","state":"CO","affiliated_committee_name":"NONE"}],"load_date":"2019-06-12T21:08:08+00:00","last_file_date":"2019-03-12","election_districts":["00","00"],"district_number":0,"candidate_id":"S0CO00286","state":"CO","active_through":2020,"federal_funds_flag":false},{"cycles":[2020],"incumbent_challenge_full":"Challenger","candidate_inactive":false,"party":"DEM","first_file_date":"2019-04-01","party_full":"DEMOCRATIC PARTY","inactive_election_years":null,"last_f2_date":"2019-04-01","office_full":"Senate","election_years":[2020],"candidate_status":"C","district":"00","has_raised_funds":true,"incumbent_challenge":"C","office":"S","name":"SPAULDING, STEPHANY ROSE","principal_committees":[{"cycles":[2020],"designation":"P","party":"DEM","filing_frequency":"Q","candidate_ids":["S0CO00484"],"first_file_date":"2019-04-01","party_full":"DEMOCRATIC PARTY","organization_type":null,"committee_type_full":"Senate","designation_full":"Principal campaign committee","committee_type":"S","organization_type_full":null,"committee_id":"C00700708","treasurer_name":"CATHEY, CAROLYN","name":"COMMITTEE TO ELECT STEPHANY ROSE SPAULDING","last_file_date":"2019-10-15","last_f1_date":"2019-04-01","state":"CO","affiliated_committee_name":"NONE"}],"load_date":"2019-07-22T21:11:27+00:00","last_file_date":"2019-04-01","election_districts":["00"],"district_number":0,"candidate_id":"S0CO00484","state":"CO","active_through":2020,"federal_funds_flag":false},{"cycles":[2020],"incumbent_challenge_full":"Challenger","candidate_inactive":false,"party":"OTH","first_file_date":"2019-05-17","party_full":"OTHER","inactive_election_years":null,"last_f2_date":"2019-05-17","office_full":"Senate","election_years":[2020],"candidate_status":"N","district":"00","has_raised_funds":false,"incumbent_challenge":"C","office":"S","name":"SWING, GARY","principal_committees":[],"load_date":"2019-06-10T21:08:12+00:00","last_file_date":"2019-05-17","election_districts":["00"],"district_number":0,"candidate_id":"S0CO00542","state":"CO","active_through":2020,"federal_funds_flag":false},{"cycles":[2020],"incumbent_challenge_full":"Challenger","candidate_inactive":false,"party":"DEM","first_file_date":"2019-04-16","party_full":"DEMOCRATIC PARTY","inactive_election_years":null,"last_f2_date":"2019-04-16","office_full":"Senate","election_years":[2020],"candidate_status":"C","district":"00","has_raised_funds":true,"incumbent_challenge":"C","office":"S","name":"WALSH, JOHN","principal_committees":[{"cycles":[2020],"designation":"P","party":"DEM","filing_frequency":"Q","candidate_ids":["S0CO00518"],"first_file_date":"2019-04-16","party_full":"DEMOCRATIC PARTY","organization_type":null,"committee_type_full":"Senate","designation_full":"Principal campaign committee","committee_type":"S","organization_type_full":null,"committee_id":"C00702381","treasurer_name":"TROYER, BOB","name":"JOHN WALSH FOR COLORADO","last_file_date":"2019-10-15","last_f1_date":"2019-04-16","state":"CO","affiliated_committee_name":"NONE"}],"load_date":"2019-07-22T21:11:27+00:00","last_file_date":"2019-04-16","election_districts":["00"],"district_number":0,"candidate_id":"S0CO00518","state":"CO","active_through":2020,"federal_funds_flag":false}],"pagination":{"per_page":20,"count":23,"page":1,"pages":2}}
